…
library(tidyverse)
library(broom)

Sintaks berikut akan membuat tabel baru yang berisi peubah (varable) gender, country, dan agregat hours_per_week yang diberi nama total_hours. Kemudian data diurutkan secara menurun (descending) berdasarkan total_hours.

income %>%
  group_by(gender, country) %>%
  summarize(total_hours = sum(hours_per_week)) %>%
  arrange(desc(total_hours))

## Warning: Factor `country` contains implicit NA, consider using
## `forcats::fct_explicit_na`

## # A tibble: 83 x 3
## # Groups:   gender [2]
##    gender country       total_hours
##    <fct>  <fct>               <int>
##  1 Male   United States      828148
##  2 Female United States      351713
##  3 Male   Mexico              20577
##  4 Male   <NA>                18094
##  5 Female <NA>                 6108
##  6 Female Mexico               5362
##  7 Male   Philippines          5053
##  8 Male   India                3760
##  9 Male   Germany              3487
## 10 Male   Canada               3360
## # ... with 73 more rows

Karena terdapat NA pada peubah country, maka R menampilkan pesan kesalahan (error) sekaligus saran perbaikannya. Berikut adalah sintaks untuk mengatasi masalah tersebut.

income$country <- fct_explicit_na(income$country)

Setelah dilakukan perbaikan, maka tidak ada lagi pesan kesalahan dan tampilan tabel baru tersebut adalah sebagai berikut.

## # A tibble: 83 x 3
## # Groups:   gender [2]
##    gender country       total_hours
##    <fct>  <fct>               <int>
##  1 Male   United States      828148
##  2 Female United States      351713
##  3 Male   Mexico              20577
##  4 Male   (Missing)           18094
##  5 Female (Missing)            6108
##  6 Female Mexico               5362
##  7 Male   Philippines          5053
##  8 Male   India                3760
##  9 Male   Germany              3487
## 10 Male   Canada               3360
## # ... with 73 more rows

Ternyata, tabel yang sama bisa dibuat hanya dengan menggunakan sebaris sintaks menggunakan fungsi count. Berikut adalah sintaksnya.

income %>%
  count(gender, country, wt = hours_per_week, name = "total_hours", sort = T)

## # A tibble: 83 x 3
##    gender country       total_hours
##    <fct>  <fct>               <int>
##  1 Male   United States      828148
##  2 Female United States      351713
##  3 Male   Mexico              20577
##  4 Male   (Missing)           18094
##  5 Female (Missing)            6108
##  6 Female Mexico               5362
##  7 Male   Philippines          5053
##  8 Male   India                3760
##  9 Male   Germany              3487
## 10 Male   Canada               3360
## # ... with 73 more rows
…
